<svg xmlns="http://www.w3.org/2000/svg" width="24" height="24" viewBox="0 0 24 24">
    <g fill="none" fill-rule="evenodd">
        <path fill-rule="nonzero" d="M0 0h24v24H0z"/>
        <path fill="#5C6061" d="M6 3a3 3 0 0 0-3 3v12a3 3 0 0 0 3 3h12a3 3 0 0 0 3-3V6a3 3 0 0 0-3-3H6zM5 6a1 1 0 0 1 1-1h12a1 1 0 0 1 1 1v12a1 1 0 0 1-1 1H6a1 1 0 0 1-1-1V6zm12.268 3.64a1 1 0 1 0-1.536-1.28l-4.406 5.287-2.745-1.96a1 1 0 1 0-1.162 1.627l3.5 2.5.755.54.594-.714 5-6z"/>
    </g>
</svg>
