<svg xmlns="http://www.w3.org/2000/svg" width="24" height="24" viewBox="0 0 24 24">
    <g fill="none" fill-rule="evenodd">
        <path d="M0 0h24v24H0z"/>
        <path fill="#5C6061" d="M4 7a1 1 0 1 0 0-2 1 1 0 0 0 0 2zm4-2a1 1 0 0 0 0 2h12a1 1 0 0 0 0-2H8zm0 6a1 1 0 0 0 0 2h12a1 1 0 0 0 0-2H8zm-1 7a1 1 0 0 1 1-1h12a1 1 0 0 1 0 2H8a1 1 0 0 1-1-1zm-2-6a1 1 0 1 1-2 0 1 1 0 0 1 2 0zm-1 7a1 1 0 1 0 0-2 1 1 0 0 0 0 2z"/>
    </g>
</svg>
