<svg xmlns="http://www.w3.org/2000/svg" width="24" height="24" viewBox="0 0 24 24">
    <g fill="none" fill-rule="evenodd">
        <path fill-rule="nonzero" d="M0 0h24v24H0z"/>
        <path fill="#5C6061" d="M14.701 3.279a3 3 0 1 1 4.76 3.653L10.96 18.01a3 3 0 0 1-3.252 1.045L7 20h12a1 1 0 0 1 0 2H5a1 1 0 0 1-.794-1.609l1.891-2.52a3.002 3.002 0 0 1 .102-3.512l6.373-8.305L11.7 5.4 9.3 8.6a1 1 0 1 1-1.6-1.2l2.997-3.996.003-.004a1 1 0 0 1 1.4-.2l.002.001 1.687 1.266.912-1.188zM7.786 15.576l6.386-8.322 1.6 1.2-6.399 8.34a1 1 0 0 1-1.376.204l-.034-.026a1 1 0 0 1-.177-1.396zm10.089-9.862l-.885 1.153-1.6-1.2.898-1.17a1 1 0 1 1 1.587 1.217z"/>
    </g>
</svg>
