<svg xmlns="http://www.w3.org/2000/svg" width="24" height="24" viewBox="0 0 24 24">
    <g fill="none" fill-rule="evenodd">
        <path fill-rule="nonzero" d="M0 0h24v24H0z"/>
        <path fill="#5C6061" d="M3 4a1 1 0 0 1 1-1h12a1 1 0 1 1 0 2h-5v15a1 1 0 1 1-2 0V5H4a1 1 0 0 1-1-1zm14 9h3a1 1 0 1 1 0 2h-2v5a1 1 0 1 1-2 0v-5h-2a1 1 0 1 1 0-2h3z"/>
    </g>
</svg>
