<svg xmlns="http://www.w3.org/2000/svg" width="16" height="16" viewBox="0 0 16 16">
    <g fill="none" fill-rule="evenodd">
        <path d="M0 0h16v16H0z"/>
        <rect width="2" height="12" x="7" y="2" fill="#5C6061" rx="1"/>
        <rect width="2" height="12" x="7" y="2" fill="#5C6061" rx="1" transform="rotate(90 8 8)"/>
    </g>
</svg>
