<svg width="19" height="20" viewBox="0 0 19 20" fill="none" xmlns="http://www.w3.org/2000/svg">
<path d="M11.7181 9.1525L3.09687 0.508125L14.0656 6.805L11.7181 9.1525ZM0.8475 0C0.339375 0.265625 0 0.75 0 1.37875V18.6169C0 19.2456 0.34 19.73 0.8475 19.9956L10.8712 9.99562L0.8475 0ZM17.4562 8.8125L15.1556 7.48063L12.5894 10L15.1556 12.5194L17.5031 11.1875C18.2062 10.6294 18.2062 9.37125 17.4562 8.8125ZM3.0975 19.4925L14.0662 13.1956L11.7188 10.8481L3.0975 19.4925Z" fill="white"/>
</svg>
