<svg xmlns="http://www.w3.org/2000/svg" width="24" height="24" viewBox="0 0 24 24">
    <g fill="none" fill-rule="evenodd">
        <path d="M0 0h24v24H0z"/>
        <path fill="#aeb7b8" d="M12.753 4L9.198 20H7a1 1 0 0 0 0 2h6a1 1 0 0 0 0-2h-1.753l3.555-16H17a1 1 0 0 0 0-2h-6a1 1 0 0 0 0 2h1.753z"/>
    </g>
</svg>
